%YAML 1.1
%TAG !u! tag:unity3d.com,2011:
--- !u!74 &7400000
AnimationClip:
  m_ObjectHideFlags: 0
  m_CorrespondingSourceObject: {fileID: 0}
  m_PrefabInstance: {fileID: 0}
  m_PrefabAsset: {fileID: 0}
  m_Name: WindboxBlow
  serializedVersion: 6
  m_Legacy: 0
  m_Compressed: 0
  m_UseHighQualityCurve: 1
  m_RotationCurves: []
  m_CompressedRotationCurves: []
  m_EulerCurves: []
  m_PositionCurves: []
  m_ScaleCurves: []
  m_FloatCurves: []
  m_PPtrCurves:
  - curve:
    - time: 0
      value: {fileID: 21300000, guid: cf0f18121bf263c4e8201b86ce4e449c, type: 3}
    - time: 0.020833334
      value: {fileID: 21300002, guid: cf0f18121bf263c4e8201b86ce4e449c, type: 3}
    - time: 0.041666668
      value: {fileID: 21300004, guid: cf0f18121bf263c4e8201b86ce4e449c, type: 3}
    - time: 0.0625
      value: {fileID: 21300006, guid: cf0f18121bf263c4e8201b86ce4e449c, type: 3}
    - time: 0.083333336
      value: {fileID: 21300008, guid: cf0f18121bf263c4e8201b86ce4e449c, type: 3}
    - time: 0.104166664
      value: {fileID: 21300010, guid: cf0f18121bf263c4e8201b86ce4e449c, type: 3}
    - time: 0.125
      value: {fileID: 21300012, guid: cf0f18121bf263c4e8201b86ce4e449c, type: 3}
    - time: 0.14583333
      value: {fileID: 21300014, guid: cf0f18121bf263c4e8201b86ce4e449c, type: 3}
    - time: 0.16666667
      value: {fileID: 21300016, guid: cf0f18121bf263c4e8201b86ce4e449c, type: 3}
    - time: 0.1875
      value: {fileID: 21300018, guid: cf0f18121bf263c4e8201b86ce4e449c, type: 3}
    - time: 0.20833333
      value: {fileID: 21300020, guid: cf0f18121bf263c4e8201b86ce4e449c, type: 3}
    - time: 0.22916667
      value: {fileID: 21300022, guid: cf0f18121bf263c4e8201b86ce4e449c, type: 3}
    - time: 0.25
      value: {fileID: 21300024, guid: cf0f18121bf263c4e8201b86ce4e449c, type: 3}
    - time: 0.27083334
      value: {fileID: 21300026, guid: cf0f18121bf263c4e8201b86ce4e449c, type: 3}
    - time: 0.29166666
      value: {fileID: 21300028, guid: cf0f18121bf263c4e8201b86ce4e449c, type: 3}
    - time: 0.3125
      value: {fileID: 21300030, guid: cf0f18121bf263c4e8201b86ce4e449c, type: 3}
    - time: 0.33333334
      value: {fileID: 21300032, guid: cf0f18121bf263c4e8201b86ce4e449c, type: 3}
    - time: 0.35416666
      value: {fileID: 21300034, guid: cf0f18121bf263c4e8201b86ce4e449c, type: 3}
    - time: 0.375
      value: {fileID: 21300036, guid: cf0f18121bf263c4e8201b86ce4e449c, type: 3}
    - time: 0.39583334
      value: {fileID: 21300038, guid: cf0f18121bf263c4e8201b86ce4e449c, type: 3}
    - time: 0.41666666
      value: {fileID: 21300040, guid: cf0f18121bf263c4e8201b86ce4e449c, type: 3}
    - time: 0.4375
      value: {fileID: 21300042, guid: cf0f18121bf263c4e8201b86ce4e449c, type: 3}
    - time: 0.45833334
      value: {fileID: 21300044, guid: cf0f18121bf263c4e8201b86ce4e449c, type: 3}
    - time: 0.47916666
      value: {fileID: 21300046, guid: cf0f18121bf263c4e8201b86ce4e449c, type: 3}
    - time: 0.5
      value: {fileID: 21300048, guid: cf0f18121bf263c4e8201b86ce4e449c, type: 3}
    - time: 0.5208333
      value: {fileID: 21300050, guid: cf0f18121bf263c4e8201b86ce4e449c, type: 3}
    - time: 0.5416667
      value: {fileID: 21300052, guid: cf0f18121bf263c4e8201b86ce4e449c, type: 3}
    - time: 0.5625
      value: {fileID: 21300054, guid: cf0f18121bf263c4e8201b86ce4e449c, type: 3}
    - time: 0.5833333
      value: {fileID: 21300056, guid: cf0f18121bf263c4e8201b86ce4e449c, type: 3}
    - time: 0.6041667
      value: {fileID: 21300058, guid: cf0f18121bf263c4e8201b86ce4e449c, type: 3}
    - time: 0.625
      value: {fileID: 21300060, guid: cf0f18121bf263c4e8201b86ce4e449c, type: 3}
    - time: 0.6458333
      value: {fileID: 21300062, guid: cf0f18121bf263c4e8201b86ce4e449c, type: 3}
    - time: 0.6666667
      value: {fileID: 21300064, guid: cf0f18121bf263c4e8201b86ce4e449c, type: 3}
    - time: 0.6875
      value: {fileID: 21300066, guid: cf0f18121bf263c4e8201b86ce4e449c, type: 3}
    - time: 0.7083333
      value: {fileID: 21300068, guid: cf0f18121bf263c4e8201b86ce4e449c, type: 3}
    - time: 0.7291667
      value: {fileID: 21300070, guid: cf0f18121bf263c4e8201b86ce4e449c, type: 3}
    - time: 0.75
      value: {fileID: 21300072, guid: cf0f18121bf263c4e8201b86ce4e449c, type: 3}
    - time: 0.7708333
      value: {fileID: 21300074, guid: cf0f18121bf263c4e8201b86ce4e449c, type: 3}
    - time: 0.7916667
      value: {fileID: 21300076, guid: cf0f18121bf263c4e8201b86ce4e449c, type: 3}
    - time: 0.8125
      value: {fileID: 21300078, guid: cf0f18121bf263c4e8201b86ce4e449c, type: 3}
    - time: 0.8333333
      value: {fileID: 21300080, guid: cf0f18121bf263c4e8201b86ce4e449c, type: 3}
    - time: 0.8541667
      value: {fileID: 21300082, guid: cf0f18121bf263c4e8201b86ce4e449c, type: 3}
    attribute: m_Sprite
    path: 
    classID: 212
    script: {fileID: 0}
  m_SampleRate: 48
  m_WrapMode: 0
  m_Bounds:
    m_Center: {x: 0, y: 0, z: 0}
    m_Extent: {x: 0, y: 0, z: 0}
  m_ClipBindingConstant:
    genericBindings:
    - serializedVersion: 2
      path: 0
      attribute: 0
      script: {fileID: 0}
      typeID: 212
      customType: 23
      isPPtrCurve: 1
    pptrCurveMapping:
    - {fileID: 21300000, guid: cf0f18121bf263c4e8201b86ce4e449c, type: 3}
    - {fileID: 21300002, guid: cf0f18121bf263c4e8201b86ce4e449c, type: 3}
    - {fileID: 21300004, guid: cf0f18121bf263c4e8201b86ce4e449c, type: 3}
    - {fileID: 21300006, guid: cf0f18121bf263c4e8201b86ce4e449c, type: 3}
    - {fileID: 21300008, guid: cf0f18121bf263c4e8201b86ce4e449c, type: 3}
    - {fileID: 21300010, guid: cf0f18121bf263c4e8201b86ce4e449c, type: 3}
    - {fileID: 21300012, guid: cf0f18121bf263c4e8201b86ce4e449c, type: 3}
    - {fileID: 21300014, guid: cf0f18121bf263c4e8201b86ce4e449c, type: 3}
    - {fileID: 21300016, guid: cf0f18121bf263c4e8201b86ce4e449c, type: 3}
    - {fileID: 21300018, guid: cf0f18121bf263c4e8201b86ce4e449c, type: 3}
    - {fileID: 21300020, guid: cf0f18121bf263c4e8201b86ce4e449c, type: 3}
    - {fileID: 21300022, guid: cf0f18121bf263c4e8201b86ce4e449c, type: 3}
    - {fileID: 21300024, guid: cf0f18121bf263c4e8201b86ce4e449c, type: 3}
    - {fileID: 21300026, guid: cf0f18121bf263c4e8201b86ce4e449c, type: 3}
    - {fileID: 21300028, guid: cf0f18121bf263c4e8201b86ce4e449c, type: 3}
    - {fileID: 21300030, guid: cf0f18121bf263c4e8201b86ce4e449c, type: 3}
    - {fileID: 21300032, guid: cf0f18121bf263c4e8201b86ce4e449c, type: 3}
    - {fileID: 21300034, guid: cf0f18121bf263c4e8201b86ce4e449c, type: 3}
    - {fileID: 21300036, guid: cf0f18121bf263c4e8201b86ce4e449c, type: 3}
    - {fileID: 21300038, guid: cf0f18121bf263c4e8201b86ce4e449c, type: 3}
    - {fileID: 21300040, guid: cf0f18121bf263c4e8201b86ce4e449c, type: 3}
    - {fileID: 21300042, guid: cf0f18121bf263c4e8201b86ce4e449c, type: 3}
    - {fileID: 21300044, guid: cf0f18121bf263c4e8201b86ce4e449c, type: 3}
    - {fileID: 21300046, guid: cf0f18121bf263c4e8201b86ce4e449c, type: 3}
    - {fileID: 21300048, guid: cf0f18121bf263c4e8201b86ce4e449c, type: 3}
    - {fileID: 21300050, guid: cf0f18121bf263c4e8201b86ce4e449c, type: 3}
    - {fileID: 21300052, guid: cf0f18121bf263c4e8201b86ce4e449c, type: 3}
    - {fileID: 21300054, guid: cf0f18121bf263c4e8201b86ce4e449c, type: 3}
    - {fileID: 21300056, guid: cf0f18121bf263c4e8201b86ce4e449c, type: 3}
    - {fileID: 21300058, guid: cf0f18121bf263c4e8201b86ce4e449c, type: 3}
    - {fileID: 21300060, guid: cf0f18121bf263c4e8201b86ce4e449c, type: 3}
    - {fileID: 21300062, guid: cf0f18121bf263c4e8201b86ce4e449c, type: 3}
    - {fileID: 21300064, guid: cf0f18121bf263c4e8201b86ce4e449c, type: 3}
    - {fileID: 21300066, guid: cf0f18121bf263c4e8201b86ce4e449c, type: 3}
    - {fileID: 21300068, guid: cf0f18121bf263c4e8201b86ce4e449c, type: 3}
    - {fileID: 21300070, guid: cf0f18121bf263c4e8201b86ce4e449c, type: 3}
    - {fileID: 21300072, guid: cf0f18121bf263c4e8201b86ce4e449c, type: 3}
    - {fileID: 21300074, guid: cf0f18121bf263c4e8201b86ce4e449c, type: 3}
    - {fileID: 21300076, guid: cf0f18121bf263c4e8201b86ce4e449c, type: 3}
    - {fileID: 21300078, guid: cf0f18121bf263c4e8201b86ce4e449c, type: 3}
    - {fileID: 21300080, guid: cf0f18121bf263c4e8201b86ce4e449c, type: 3}
    - {fileID: 21300082, guid: cf0f18121bf263c4e8201b86ce4e449c, type: 3}
  m_AnimationClipSettings:
    serializedVersion: 2
    m_AdditiveReferencePoseClip: {fileID: 0}
    m_AdditiveReferencePoseTime: 0
    m_StartTime: 0
    m_StopTime: 0.875
    m_OrientationOffsetY: 0
    m_Level: 0
    m_CycleOffset: 0
    m_HasAdditiveReferencePose: 0
    m_LoopTime: 1
    m_LoopBlend: 0
    m_LoopBlendOrientation: 0
    m_LoopBlendPositionY: 0
    m_LoopBlendPositionXZ: 0
    m_KeepOriginalOrientation: 0
    m_KeepOriginalPositionY: 1
    m_KeepOriginalPositionXZ: 0
    m_HeightFromFeet: 0
    m_Mirror: 0
  m_EditorCurves: []
  m_EulerEditorCurves: []
  m_HasGenericRootTransform: 0
  m_HasMotionFloatCurves: 0
  m_Events: []
